___lwdiv@dividend 72 0 COMMON 1
__end_ofPL8 3A6 0 CODE 0
_PWM2LDCONbits DAF 0 ABS 0
_PWM3LDCONbits DBF 0 ABS 0
___ltdiv@counter 49 0 BANK0 1
_CheckTimerSetting 306 0 CODE 0
___lwdiv@counter 76 0 COMMON 1
PL2 256 0 CODE 0
PL4 25D 0 CODE 0
PL6 264 0 CODE 0
PL8 3A0 0 CODE 0
_PWM2OFCONbits DB0 0 ABS 0
_PWM3OFCONbits DC0 0 ABS 0
__end_of_initPIC 227 0 CODE 0
__CFG_WRT$OFF 0 0 ABS 0
PL10 29D 0 CODE 0
_RA4 64 0 ABS 0
_RA5 65 0 ABS 0
__S0 8009 0 ABS 0
__S1 7E 0 ABS 0
__S2 0 0 ABS 0
__Hintentry 182 0 CODE 0
__Lintentry 4 0 CODE 0
__CFG_BOREN$ON 0 0 ABS 0
__pintentry 4 0 CODE 0
_Red 36 0 BANK0 1
_PWM2CLKCONbits DAE 0 ABS 0
_PWM3CLKCONbits DBE 0 ABS 0
_isr 4 0 CODE 0
_TMR0 15 0 ABS 0
_T0IE 5D 0 ABS 0
_T0IF 5A 0 ABS 0
_CurrentColor 35 0 BANK0 1
_Blue 56 0 BANK0 1
_TempCalc 3B 0 BANK0 1
_main 26B 0 CODE 0
___sp 0 0 STACK 2
btemp 7E 0 ABS 0
_TickCounterMax 30 0 BANK0 1
start 182 0 CODE 0
_TMR1H 17 0 ABS 0
_IOCAF 393 0 ABS 0
_TMR1L 16 0 ABS 0
_TRISA 8C 0 ABS 0
reset_vec 0 0 CODE 0
wtemp0 7E 0 ABS 0
__Hconfig 8009 0 CONFIG 0
__Lconfig 8007 0 CONFIG 0
_PulseDimming 33 0 BANK0 1
__size_ofi1_CheckTimerSetting 0 0 ABS 0
__Hbigram 0 0 ABS 0
__Lbigram 0 0 ABS 0
i1_UpdateBrightness 382 0 CODE 0
_PulseMinBrightness 22 0 BANK0 1
__CFG_CP$ON 0 0 ABS 0
__Hram 0 0 ABS 0
__Lram 0 0 ABS 0
_StepSize 24 0 BANK0 1
__size_of_isr 0 0 ABS 0
__size_of___ltdiv 0 0 ABS 0
__end_ofi1_EnableTimerZero 3D5 0 CODE 0
_MasterTimerFlag 3A 0 BANK0 1
int$flags 7E 0 ABS 0
__Hfunctab 0 0 ENTRY 0
_TRISA1 461 0 ABS 0
__Lfunctab 0 0 ENTRY 0
_TRISA4 464 0 ABS 0
__Hcommon 0 0 ABS 0
__Lcommon 0 0 ABS 0
_PIE1bits 91 0 ABS 0
__Heeprom_data 0 0 EEDATA 3
__Leeprom_data 0 0 EEDATA 3
_PWM2DC DA3 0 ABS 0
_PWM3DC DB3 0 ABS 0
_PIR1bits 11 0 ABS 0
_LATAbits 10C 0 ABS 0
___int_sp 0 0 STACK 2
__CFG_CLKOUTEN$OFF 0 0 ABS 0
__end_ofi1_UpdateBrightness 3A0 0 CODE 0
_ANSELA 18C 0 ABS 0
_PWM2PH DA1 0 ABS 0
_PWM3PH DB1 0 ABS 0
?___ltdiv 40 0 BANK0 1
?___lwdiv 70 0 COMMON 1
_T1GCON 19 0 ABS 0
_OSCCON 99 0 ABS 0
__Habs1 0 0 ABS 0
__Labs1 0 0 ABS 0
_PWM2PR DA5 0 ABS 0
_PWM3PR DB5 0 ABS 0
__Hsfr0 0 0 ABS 0
__Lsfr0 0 0 ABS 0
__Hsfr1 0 0 ABS 0
__Lsfr1 0 0 ABS 0
__Hsfr2 0 0 ABS 0
__Lsfr2 0 0 ABS 0
__Hsfr3 0 0 ABS 0
__Lsfr3 0 0 ABS 0
__Hsfr4 0 0 ABS 0
__Lsfr4 0 0 ABS 0
__Hsfr5 0 0 ABS 0
__Lsfr5 0 0 ABS 0
__Hsfr6 0 0 ABS 0
__Lsfr6 0 0 ABS 0
__Hsfr7 0 0 ABS 0
__Lsfr7 0 0 ABS 0
__Hsfr8 0 0 ABS 0
__Lsfr8 0 0 ABS 0
__Hsfr9 0 0 ABS 0
__Lsfr9 0 0 ABS 0
__end_ofi1___ltdiv 306 0 CODE 0
_InitSoftUART 3DB 0 CODE 0
__end_of___ltdiv 2D4 0 CODE 0
__Hcode 0 0 ABS 0
__Lcode 0 0 ABS 0
stackhi 206F 0 ABS 0
__HcstackBANK0 0 0 ABS 0
__LcstackBANK0 0 0 ABS 0
__pcstackBANK0 3C 0 BANK0 1
stacklo 2039 0 ABS 0
__Hinit 182 0 CODE 0
__Linit 182 0 CODE 0
___wmul 3A6 0 CODE 0
__end_of_main 29D 0 CODE 0
__Htext 0 0 ABS 0
__Ltext 0 0 ABS 0
___wmul@multiplier 77 0 COMMON 1
end_of_initialization 18A 0 CODE 0
i1___ltdiv@dividend 73 0 COMMON 1
__HnvBANK0 0 0 ABS 0
__LnvBANK0 0 0 ABS 0
__pnvBANK0 4F 0 BANK0 1
___wmul@multiplicand 79 0 COMMON 1
__Hsfr10 0 0 ABS 0
__Lsfr10 0 0 ABS 0
__end_of_UpdateBrightness 35D 0 CODE 0
__Hsfr20 0 0 ABS 0
__Lsfr20 0 0 ABS 0
__Hsfr30 0 0 ABS 0
__Hsfr11 0 0 ABS 0
__Lsfr30 0 0 ABS 0
__Lsfr11 0 0 ABS 0
__Hsfr21 0 0 ABS 0
__Lsfr21 0 0 ABS 0
__Hsfr31 0 0 ABS 0
__Hsfr12 0 0 ABS 0
__Lsfr31 0 0 ABS 0
__Lsfr12 0 0 ABS 0
__Hsfr22 0 0 ABS 0
__Lsfr22 0 0 ABS 0
i1___ltdiv@counter 79 0 COMMON 1
__Hsfr13 0 0 ABS 0
__Lsfr13 0 0 ABS 0
__Hsfr23 0 0 ABS 0
__Lsfr23 0 0 ABS 0
__Hsfr14 0 0 ABS 0
__Lsfr14 0 0 ABS 0
__Hsfr24 0 0 ABS 0
__Lsfr24 0 0 ABS 0
__Hsfr15 0 0 ABS 0
__Lsfr15 0 0 ABS 0
__Hsfr25 0 0 ABS 0
__Lsfr25 0 0 ABS 0
__Hsfr16 0 0 ABS 0
__Lsfr16 0 0 ABS 0
__Hsfr26 0 0 ABS 0
__Lsfr26 0 0 ABS 0
__size_of_EnableTimerZero 0 0 ABS 0
__Hsfr17 0 0 ABS 0
__Lsfr17 0 0 ABS 0
__Hsfr27 0 0 ABS 0
__Lsfr27 0 0 ABS 0
__Hsfr18 0 0 ABS 0
__Lsfr18 0 0 ABS 0
__Hsfr28 0 0 ABS 0
__Lsfr28 0 0 ABS 0
__Hsfr19 0 0 ABS 0
__Lsfr19 0 0 ABS 0
__Hsfr29 0 0 ABS 0
__Lsfr29 0 0 ABS 0
_TenthSecondsTimer 2C 0 BANK0 1
_IOCANbits 392 0 ABS 0
_PORTAbits C 0 ABS 0
_T1CONbits 18 0 ABS 0
__Hstrings 0 0 ABS 0
_T2CONbits 1C 0 ABS 0
__Lstrings 0 0 ABS 0
_ModeChange 34 0 BANK0 1
i1___ltdiv 2D4 0 CODE 0
__end_of_InitSoftUART 3E1 0 CODE 0
_PWM2OFL DA7 0 ABS 0
_PWM3OFL DB7 0 ABS 0
_initPIC 18D 0 CODE 0
__Hbank0 0 0 ABS 0
__Lbank0 0 0 ABS 0
__Hbank1 0 0 ABS 0
__Lbank1 0 0 ABS 0
__Hbank2 0 0 BANK2 1
__Lbank2 0 0 BANK2 1
__Hbank3 0 0 BANK3 1
__Lbank3 0 0 BANK3 1
___latbits 0 0 ABS 0
__Hbank4 0 0 BANK4 1
__Lbank4 0 0 BANK4 1
__Hbank5 0 0 BANK5 1
__Lbank5 0 0 BANK5 1
__Hpowerup 0 0 CODE 0
__Lpowerup 0 0 CODE 0
__Hbank6 0 0 BANK6 1
__Lbank6 0 0 BANK6 1
__Hbank7 0 0 BANK7 1
__Lbank7 0 0 BANK7 1
__Hbank8 0 0 BANK8 1
__Lbank8 0 0 BANK8 1
_TenthSecondsTimerMax 2A 0 BANK0 1
__Hbank9 0 0 BANK9 1
__Lbank9 0 0 BANK9 1
__ptext1 18D 0 CODE 0
__ptext2 336 0 CODE 0
__ptext3 3DB 0 CODE 0
__size_of_InitSoftUART 0 0 ABS 0
__ptext4 306 0 CODE 0
__ptext5 2A2 0 CODE 0
__ptext6 3BB 0 CODE 0
__ptext8 382 0 CODE 0
__ptext9 227 0 CODE 0
__Hclrtext 0 0 ABS 0
__Lclrtext 0 0 ABS 0
__end_of_EnableTimerZero 3C9 0 CODE 0
i1_CheckTimerSetting 227 0 CODE 0
_PulseLimitBrightness 20 0 BANK0 1
_OnOffState 37 0 BANK0 1
__end_of__initialization 18A 0 CODE 0
_PWM1CONbits D9B 0 ABS 0
_PWM2CONbits DAB 0 ABS 0
_PWM3CONbits DBB 0 ABS 0
__end_of___lwdiv 382 0 CODE 0
_DimFlag 39 0 BANK0 1
__Hidloc 0 0 IDLOC 0
__Lidloc 0 0 IDLOC 0
__Hstack 0 0 STACK 2
__Lstack 0 0 STACK 2
_MasterTimerSetting 4F 0 BANK0 1
__Hspace_0 8009 0 ABS 0
__Lspace_0 0 0 ABS 0
_Pulsing 32 0 BANK0 1
__end_of_isr 182 0 CODE 0
__Hspace_1 7E 0 ABS 0
__Lspace_1 0 0 ABS 0
__Hspace_2 0 0 ABS 0
__Lspace_2 0 0 ABS 0
?___wmul 77 0 COMMON 1
__Hcinit 18D 0 CODE 0
__Lcinit 183 0 CODE 0
_isr$1377 3E 0 BANK0 1
___ltdiv 2A2 0 CODE 0
__Hspace_3 0 0 ABS 0
___lwdiv 35D 0 CODE 0
__Lspace_3 0 0 ABS 0
__size_of_main 0 0 ABS 0
__CFG_MCLRE$OFF 0 0 ABS 0
i1___ltdiv@divisor 70 0 COMMON 1
_UpdateBrightness 336 0 CODE 0
clear_ram0 3D5 0 CODE 0
__size_of___lwdiv 0 0 ABS 0
UpdateBrightness@PWMDutyCycle 40 0 BANK0 1
__HbssBANK0 0 0 ABS 0
__LbssBANK0 0 0 ABS 0
__Hbank10 0 0 BANK10 1
__pbssBANK0 20 0 BANK0 1
__Lbank10 0 0 BANK10 1
__Hbank20 0 0 BANK20 1
__Lbank20 0 0 BANK20 1
__end_ofi1_CheckTimerSetting 256 0 CODE 0
__Hbank30 0 0 BANK30 1
__Hbank11 0 0 BANK11 1
__Lbank30 0 0 BANK30 1
__Lbank11 0 0 BANK11 1
__Hbank21 0 0 BANK21 1
__Lbank21 0 0 BANK21 1
__Hbank31 0 0 BANK31 1
__Hbank12 0 0 BANK12 1
__Lbank31 0 0 BANK31 1
__Lbank12 0 0 BANK12 1
__Hbank22 0 0 BANK22 1
__Lbank22 0 0 BANK22 1
i1_EnableTimerZero 3C9 0 CODE 0
__Hbank13 0 0 BANK13 1
__Lbank13 0 0 BANK13 1
__Hbank23 0 0 BANK23 1
__Lbank23 0 0 BANK23 1
__Hbank14 0 0 BANK14 1
__Lbank14 0 0 BANK14 1
__Hbank24 0 0 BANK24 1
__end_of_CheckTimerSetting 336 0 CODE 0
__Lbank24 0 0 BANK24 1
__ptext10 2D4 0 CODE 0
__Hbank15 0 0 BANK15 1
__Lbank15 0 0 BANK15 1
__Hbank25 0 0 BANK25 1
__Lbank25 0 0 BANK25 1
__ptext11 3C9 0 CODE 0
__Hbank16 0 0 BANK16 1
__Lbank16 0 0 BANK16 1
__Hbank26 0 0 BANK26 1
__Lbank26 0 0 BANK26 1
__ptext12 3A6 0 CODE 0
__Hbank17 0 0 BANK17 1
__Lbank17 0 0 BANK17 1
__Hbank27 0 0 BANK27 1
__Lbank27 0 0 BANK27 1
__ptext13 35D 0 CODE 0
__Hbank18 0 0 BANK18 1
__Lbank18 0 0 BANK18 1
__size_ofi1_EnableTimerZero 0 0 ABS 0
__Hbank28 0 0 BANK28 1
__Lbank28 0 0 BANK28 1
__Hbank19 0 0 BANK19 1
__Lbank19 0 0 BANK19 1
__Hbank29 0 0 BANK29 1
__Lbank29 0 0 BANK29 1
_PWMDutyCycle 28 0 BANK0 1
_MinBrightness 54 0 BANK0 1
__Hpa_nodes0 0 0 ABS 0
_MaxBrightness 57 0 BANK0 1
__Lpa_nodes0 0 0 ABS 0
__HbssCOMMON 0 0 ABS 0
__LbssCOMMON 0 0 ABS 0
__pbssCOMMON 7D 0 COMMON 1
_APFCONbits 11D 0 ABS 0
_INTCONbits B 0 ABS 0
__Hend_init 183 0 CODE 0
__Lend_init 182 0 CODE 0
___ltdiv@divisor 40 0 BANK0 1
___lwdiv@divisor 70 0 COMMON 1
__size_ofi1_UpdateBrightness 0 0 ABS 0
_CyclesPerTenthSecond 7D 0 COMMON 1
?i1___ltdiv 70 0 COMMON 1
_PWM2INTE DAC 0 ABS 0
_PWM3INTE DBC 0 ABS 0
__size_of___wmul 0 0 ABS 0
__Hreset_vec 1 0 CODE 0
__Lreset_vec 0 0 CODE 0
intlevel0 0 0 ENTRY 0
__CFG_WDTE$OFF 0 0 ABS 0
intlevel1 0 0 ENTRY 0
intlevel2 0 0 ENTRY 0
intlevel3 0 0 ENTRY 0
__size_of_initPIC 0 0 ABS 0
intlevel4 0 0 ENTRY 0
intlevel5 0 0 ENTRY 0
__size_ofi1___ltdiv 0 0 ABS 0
__size_of_UpdateBrightness 0 0 ABS 0
__end_ofPL2 25D 0 CODE 0
__HcstackCOMMON 0 0 ABS 0
__LcstackCOMMON 0 0 ABS 0
__pcstackCOMMON 70 0 COMMON 1
__end_of___wmul 3BB 0 CODE 0
start_initialization 183 0 CODE 0
___ltdiv@quotient 46 0 BANK0 1
_LEDTickCounter 31 0 BANK0 1
___lwdiv@quotient 74 0 COMMON 1
__end_ofPL10 2A2 0 CODE 0
__end_ofPL4 264 0 CODE 0
__Hmaintext 0 0 ABS 0
__Lmaintext 0 0 ABS 0
__size_of_CheckTimerSetting 0 0 ABS 0
__pmaintext 26B 0 CODE 0
_OPTION_REGbits 95 0 ABS 0
__CFG_FOSC$INTOSC 0 0 ABS 0
i1___ltdiv@quotient 76 0 COMMON 1
_PulseDutyCycle 26 0 BANK0 1
_PulsePeriod 52 0 BANK0 1
__initialization 183 0 CODE 0
i1UpdateBrightness@PWMDutyCycle 70 0 COMMON 1
__end_ofPL6 26B 0 CODE 0
___wmul@product 7B 0 COMMON 1
_MasterCounter 2E 0 BANK0 1
_CycleCounter 38 0 BANK0 1
__CFG_LVP$OFF 0 0 ABS 0
_EnableTimerZero 3BB 0 CODE 0
___ltdiv@dividend 43 0 BANK0 1
%segments
reset_vec 0 1 CODE 0 0
intentry 8 7C1 CODE 8 0
config 1000E 10011 CONFIG 1000E 0
cstackCOMMON 70 7D COMMON 70 1
bssBANK0 20 58 BANK0 20 1
%locals
dist/default/production\GTS_2000_R2.0.production.obj
C:\Users\PhilG\AppData\Local\Temp\sj8k.
1154 183 0 CODE 0
1157 183 0 CODE 0
1248 183 0 CODE 0
1244 184 0 CODE 0
1249 185 0 CODE 0
1250 186 0 CODE 0
1251 187 0 CODE 0
1252 188 0 CODE 0
1253 189 0 CODE 0
1259 18A 0 CODE 0
1261 18A 0 CODE 0
1262 18B 0 CODE 0
1263 18C 0 CODE 0
1233 3D5 0 CODE 0
1234 3D5 0 CODE 0
1235 3D6 0 CODE 0
1236 3D6 0 CODE 0
1237 3D7 0 CODE 0
1238 3D8 0 CODE 0
1239 3D9 0 CODE 0
1240 3DA 0 CODE 0
GTS 1000 EL V2.c
46 26B 0 CODE 0
52 26B 0 CODE 0
59 26C 0 CODE 0
60 278 0 CODE 0
61 27C 0 CODE 0
62 280 0 CODE 0
64 281 0 CODE 0
70 283 0 CODE 0
72 288 0 CODE 0
71 289 0 CODE 0
72 28B 0 CODE 0
74 28D 0 CODE 0
76 28E 0 CODE 0
77 29B 0 CODE 0
init.c
11 18D 0 CODE 0
22 18D 0 CODE 0
15 18E 0 CODE 0
16 190 0 CODE 0
17 191 0 CODE 0
22 192 0 CODE 0
23 195 0 CODE 0
24 198 0 CODE 0
25 19A 0 CODE 0
26 19B 0 CODE 0
27 19F 0 CODE 0
28 1A1 0 CODE 0
29 1A2 0 CODE 0
33 1A3 0 CODE 0
35 1A4 0 CODE 0
42 1A6 0 CODE 0
35 1A7 0 CODE 0
42 1A8 0 CODE 0
44 1AA 0 CODE 0
51 1AC 0 CODE 0
52 1AE 0 CODE 0
54 1AF 0 CODE 0
55 1B2 0 CODE 0
59 1B4 0 CODE 0
60 1B5 0 CODE 0
62 1B6 0 CODE 0
63 1BA 0 CODE 0
64 1BC 0 CODE 0
65 1BE 0 CODE 0
66 1BF 0 CODE 0
67 1C1 0 CODE 0
69 1C2 0 CODE 0
70 1C3 0 CODE 0
71 1C4 0 CODE 0
72 1C5 0 CODE 0
73 1C6 0 CODE 0
75 1C8 0 CODE 0
76 1CC 0 CODE 0
77 1CE 0 CODE 0
78 1D0 0 CODE 0
79 1D1 0 CODE 0
80 1D3 0 CODE 0
82 1D4 0 CODE 0
83 1D6 0 CODE 0
85 1D8 0 CODE 0
86 1D9 0 CODE 0
87 1DA 0 CODE 0
88 1DB 0 CODE 0
89 1DC 0 CODE 0
92 1DE 0 CODE 0
93 1E0 0 CODE 0
94 1E4 0 CODE 0
100 1E6 0 CODE 0
103 1E9 0 CODE 0
104 1EA 0 CODE 0
105 1EB 0 CODE 0
109 1EF 0 CODE 0
110 1F2 0 CODE 0
112 1F4 0 CODE 0
116 1F7 0 CODE 0
118 1F8 0 CODE 0
122 205 0 CODE 0
124 207 0 CODE 0
125 208 0 CODE 0
126 209 0 CODE 0
128 20A 0 CODE 0
129 20B 0 CODE 0
131 20C 0 CODE 0
133 20E 0 CODE 0
136 210 0 CODE 0
140 211 0 CODE 0
141 216 0 CODE 0
142 218 0 CODE 0
143 219 0 CODE 0
145 21A 0 CODE 0
149 21B 0 CODE 0
150 21D 0 CODE 0
152 21E 0 CODE 0
153 222 0 CODE 0
158 226 0 CODE 0
GTS 1000 EL V2.c
292 336 0 CODE 0
294 336 0 CODE 0
298 339 0 CODE 0
299 33C 0 CODE 0
302 33D 0 CODE 0
303 345 0 CODE 0
307 346 0 CODE 0
310 34A 0 CODE 0
311 34D 0 CODE 0
315 34E 0 CODE 0
316 356 0 CODE 0
320 357 0 CODE 0
321 35C 0 CODE 0
Software_UART.c
5 3DB 0 CODE 0
7 3DB 0 CODE 0
9 3DD 0 CODE 0
10 3DF 0 CODE 0
11 3E0 0 CODE 0
GTS 1000 EL V2.c
329 306 0 CODE 0
332 306 0 CODE 0
335 307 0 CODE 0
337 310 0 CODE 0
338 313 0 CODE 0
342 314 0 CODE 0
343 316 0 CODE 0
347 317 0 CODE 0
349 31A 0 CODE 0
351 31B 0 CODE 0
354 31B 0 CODE 0
357 324 0 CODE 0
363 335 0 CODE 0
C:\Program Files (x86)\Microchip\xc8\v1.45\sources\common\ltdiv.c
6 2A2 0 CODE 0
14 2A2 0 CODE 0
15 2A5 0 CODE 0
16 2AA 0 CODE 0
18 2AB 0 CODE 0
19 2AB 0 CODE 0
17 2AC 0 CODE 0
18 2AE 0 CODE 0
17 2B1 0 CODE 0
22 2B2 0 CODE 0
23 2B5 0 CODE 0
24 2C1 0 CODE 0
25 2C7 0 CODE 0
27 2C8 0 CODE 0
28 2CB 0 CODE 0
30 2CD 0 CODE 0
31 2D3 0 CODE 0
GTS 1000 EL V2.c
366 3BB 0 CODE 0
368 3BB 0 CODE 0
369 3BC 0 CODE 0
371 3BE 0 CODE 0
373 3C7 0 CODE 0
374 3C8 0 CODE 0
86 4 0 CODE 0
89 6 0 CODE 0
93 9 0 CODE 0
94 B 0 CODE 0
97 D 0 CODE 0
99 E 0 CODE 0
100 12 0 CODE 0
101 15 0 CODE 0
102 18 0 CODE 0
107 19 0 CODE 0
109 21 0 CODE 0
110 23 0 CODE 0
116 25 0 CODE 0
117 2D 0 CODE 0
118 2F 0 CODE 0
122 31 0 CODE 0
128 32 0 CODE 0
132 34 0 CODE 0
133 3A 0 CODE 0
135 3B 0 CODE 0
140 3F 0 CODE 0
136 40 0 CODE 0
140 41 0 CODE 0
142 47 0 CODE 0
143 74 0 CODE 0
147 82 0 CODE 0
149 8F 0 CODE 0
151 9B 0 CODE 0
153 A3 0 CODE 0
155 A6 0 CODE 0
157 AA 0 CODE 0
159 B6 0 CODE 0
160 BE 0 CODE 0
165 C0 0 CODE 0
167 C4 0 CODE 0
168 CC 0 CODE 0
176 CF 0 CODE 0
180 D3 0 CODE 0
185 D8 0 CODE 0
187 DB 0 CODE 0
192 DC 0 CODE 0
194 DE 0 CODE 0
197 EB 0 CODE 0
199 EE 0 CODE 0
203 F0 0 CODE 0
201 F1 0 CODE 0
203 F2 0 CODE 0
205 FE 0 CODE 0
206 101 0 CODE 0
207 105 0 CODE 0
208 10E 0 CODE 0
210 114 0 CODE 0
211 11C 0 CODE 0
205 120 0 CODE 0
216 121 0 CODE 0
218 127 0 CODE 0
219 12A 0 CODE 0
222 12B 0 CODE 0
223 12E 0 CODE 0
224 130 0 CODE 0
225 131 0 CODE 0
230 132 0 CODE 0
233 135 0 CODE 0
237 138 0 CODE 0
238 13B 0 CODE 0
239 13E 0 CODE 0
240 13F 0 CODE 0
241 141 0 CODE 0
243 143 0 CODE 0
245 144 0 CODE 0
251 147 0 CODE 0
252 149 0 CODE 0
253 14B 0 CODE 0
254 14D 0 CODE 0
255 14E 0 CODE 0
256 14F 0 CODE 0
257 150 0 CODE 0
258 152 0 CODE 0
260 153 0 CODE 0
262 153 0 CODE 0
263 154 0 CODE 0
267 154 0 CODE 0
268 155 0 CODE 0
269 157 0 CODE 0
270 159 0 CODE 0
271 15A 0 CODE 0
274 15B 0 CODE 0
275 15F 0 CODE 0
276 162 0 CODE 0
278 167 0 CODE 0
279 16C 0 CODE 0
280 16D 0 CODE 0
282 170 0 CODE 0
280 171 0 CODE 0
282 172 0 CODE 0
284 17E 0 CODE 0
287 180 0 CODE 0
292 382 0 CODE 0
294 382 0 CODE 0
298 385 0 CODE 0
299 388 0 CODE 0
302 389 0 CODE 0
303 38D 0 CODE 0
307 38E 0 CODE 0
310 392 0 CODE 0
311 395 0 CODE 0
315 396 0 CODE 0
316 39A 0 CODE 0
320 39B 0 CODE 0
329 227 0 CODE 0
332 227 0 CODE 0
335 228 0 CODE 0
337 230 0 CODE 0
342 234 0 CODE 0
347 237 0 CODE 0
351 23B 0 CODE 0
354 23B 0 CODE 0
357 243 0 CODE 0
363 254 0 CODE 0
364 255 0 CODE 0
C:\Program Files (x86)\Microchip\xc8\v1.45\sources\common\ltdiv.c
6 2D4 0 CODE 0
14 2D4 0 CODE 0
15 2D7 0 CODE 0
16 2DC 0 CODE 0
18 2DD 0 CODE 0
19 2DD 0 CODE 0
17 2DE 0 CODE 0
18 2E0 0 CODE 0
17 2E3 0 CODE 0
22 2E4 0 CODE 0
23 2E7 0 CODE 0
24 2F3 0 CODE 0
25 2F9 0 CODE 0
27 2FA 0 CODE 0
28 2FD 0 CODE 0
30 2FF 0 CODE 0
31 305 0 CODE 0
GTS 1000 EL V2.c
366 3C9 0 CODE 0
368 3C9 0 CODE 0
369 3CA 0 CODE 0
371 3CB 0 CODE 0
373 3D3 0 CODE 0
374 3D4 0 CODE 0
C:\Program Files (x86)\Microchip\xc8\v1.45\sources\common\Umul16.c
15 3A6 0 CODE 0
43 3A6 0 CODE 0
45 3A8 0 CODE 0
46 3AA 0 CODE 0
47 3AE 0 CODE 0
48 3B0 0 CODE 0
49 3B2 0 CODE 0
52 3B6 0 CODE 0
53 3BA 0 CODE 0
C:\Program Files (x86)\Microchip\xc8\v1.45\sources\common\lwdiv.c
6 35D 0 CODE 0
14 35D 0 CODE 0
15 35F 0 CODE 0
16 363 0 CODE 0
18 364 0 CODE 0
19 364 0 CODE 0
17 365 0 CODE 0
18 367 0 CODE 0
17 369 0 CODE 0
22 36A 0 CODE 0
23 36C 0 CODE 0
24 374 0 CODE 0
25 378 0 CODE 0
27 379 0 CODE 0
28 37B 0 CODE 0
30 37D 0 CODE 0
31 381 0 CODE 0
